<svg width="66" height="66" viewBox="0 0 66 66" fill="none" xmlns="http://www.w3.org/2000/svg">
<g clip-path="url(#clip0)">
<path d="M30.9499 34.1H35.0674L56.1513 10.0623C56.4557 9.71091 56.4557 9.18384 56.1513 8.83246L48.6694 0.319438C48.4932 0.111803 48.2368 0 47.9645 0H18.0368C17.7644 0 17.5081 0.111803 17.3319 0.319438L9.84995 8.84843C9.54554 9.19981 9.54554 9.72688 9.84995 10.0783L30.9499 34.1Z" fill="#FFDFA5"/>
<path d="M51.4027 50.1209L51.3867 50.233H49.6562L46.1311 41.4042H62.3947C64.3816 41.4042 66 39.7859 66 37.799C66 35.8121 64.3816 34.1937 62.3947 34.1937H35.059L56.1456 10.0947C56.4501 9.74217 56.4501 9.2134 56.1456 8.86088L48.6628 0.320466C48.4865 0.112163 48.2301 0 47.9577 0H18.0422C17.7698 0 17.5135 0.112163 17.3372 0.320466L9.85433 8.87691C9.54989 9.22942 9.54989 9.75819 9.85433 10.1107L30.941 34.2097H3.60524C1.61835 34.2097 0 35.8281 0 37.815C0 39.8019 1.61835 41.4202 3.60524 41.4202H8.26802L8.20393 41.6125C8.0437 42.0131 7.9796 42.4297 7.99563 42.8463C8.01165 43.7276 8.39621 44.5448 9.03714 45.1376L27.9446 62.5069C28.906 63.3882 30.1558 63.8849 31.4698 63.8849H51.3226V66.016H53.1813V51.1944C53.1813 49.3518 54.6875 47.8456 56.5302 47.8456H66.016V45.9869H56.5302C54.0466 45.9548 51.8995 47.7174 51.4027 50.1209ZM12.6103 10.4151H24.8201L30.925 31.3416L12.6103 10.4151ZM20.0932 1.8587H30.941L25.5091 8.05972L20.0932 1.8587ZM27.5761 8.55644L33.008 2.35542L38.4399 8.55644H27.5761ZM42.5419 8.55644L47.9738 2.35542L53.4057 8.55644H42.5419ZM53.3896 10.4151L35.075 31.3416L41.1799 10.4151H53.3896ZM40.4749 8.05972L35.043 1.8587H45.8907L40.4749 8.05972ZM39.2411 10.4151L33.008 31.8062L26.7589 10.4151H39.2411ZM12.6103 8.55644L18.0422 2.35542L23.4741 8.55644H12.6103ZM3.60524 36.0684H62.3947C63.3561 36.0684 64.1413 36.8536 64.1413 37.815C64.1413 38.7764 63.3561 39.5615 62.3947 39.5615H3.60524C2.64384 39.5615 1.8587 38.7764 1.8587 37.815C1.8587 36.8536 2.64384 36.0684 3.60524 36.0684ZM18.4268 41.5965C18.1063 42.3977 18.1063 43.2629 18.4108 44L18.9395 45.4421L14.469 41.4042H18.4909L18.4268 41.5965ZM33.3124 41.5965L33.2483 41.4202H39.5455V50.6016L32.9439 53.9024L33.4887 42.7982C33.5207 42.3816 33.4566 41.981 33.3124 41.5965ZM28.6497 49.4159L29.1784 42.5579C29.2265 41.917 29.7713 41.4202 30.4122 41.4202C30.7487 41.4202 31.0692 41.5484 31.3095 41.8048C31.5499 42.0451 31.662 42.3816 31.646 42.7181L31.0852 53.9024L28.6497 49.4159ZM10.2229 41.8048C10.4792 41.5484 10.8157 41.4042 11.1682 41.4042C11.4887 41.4042 11.8092 41.5164 12.0495 41.7407L20.3015 49.1915L20.3175 49.2076H20.3336L29.1624 57.2032C29.3226 57.3474 29.563 57.4435 29.7873 57.4435C29.9315 57.4435 30.0757 57.4115 30.2039 57.3474L40.8915 51.9956C41.2119 51.8354 41.4042 51.5149 41.4042 51.1624V41.4042H44.1121L48.15 51.5149C48.2942 51.8674 48.6307 52.1078 49.0153 52.1078H51.2906V61.9941H31.4537C30.6205 61.9941 29.8194 61.6737 29.1945 61.1129L10.2709 43.7436C9.99854 43.5033 9.83831 43.1507 9.83831 42.7822C9.82228 42.4137 9.96649 42.0612 10.2229 41.8048ZM27.496 41.5965C27.3838 41.9009 27.3197 42.1573 27.3037 42.3977L26.9993 46.3875L24.2913 41.4042H27.5601L27.496 41.5965ZM26.7749 49.8966L29.595 55.0881L21.8878 48.134L20.1253 43.327C19.965 42.9585 19.9811 42.5579 20.1573 42.2054C20.3336 41.8529 20.654 41.5965 21.0386 41.5003C21.1508 41.4683 21.2629 41.4523 21.3751 41.4523C21.8558 41.4523 22.3044 41.7086 22.5288 42.1092L26.7269 49.8325V49.9126L26.7749 49.8966Z" fill="#53545D"/>
<path d="M0.929352 6.13693C2.77203 6.13693 4.27822 7.64312 4.27822 9.4858C4.27822 9.99854 4.69483 10.4151 5.20757 10.4151C5.72032 10.4151 6.13693 9.99854 6.13693 9.4858C6.13693 7.64312 7.64312 6.13693 9.4858 6.13693C9.99854 6.13693 10.4151 5.72032 10.4151 5.20757C10.4151 4.69483 9.99854 4.27822 9.4858 4.27822C7.64312 4.27822 6.13693 2.77203 6.13693 0.929352C6.13693 0.416606 5.72032 0 5.20757 0C4.69483 0 4.27822 0.416606 4.27822 0.929352C4.27822 2.77203 2.77203 4.27822 0.929352 4.27822C0.416606 4.27822 0 4.69483 0 5.20757C0 5.72032 0.416606 6.13693 0.929352 6.13693ZM5.20757 3.90969L5.31974 4.0539C5.62418 4.45448 5.96067 4.80699 6.36125 5.09541L6.50546 5.20757L6.36125 5.31974C5.96067 5.62418 5.60816 5.96067 5.31974 6.36125L5.20757 6.50546L5.09541 6.36125C4.79097 5.96067 4.43846 5.60816 4.0539 5.31974L3.90969 5.20757L4.0539 5.09541C4.45448 4.79097 4.80699 4.45448 5.09541 4.0539L5.20757 3.90969Z" fill="#53545D"/>
</g>
<defs>
<clipPath id="clip0">
<rect width="66" height="66" fill="white"/>
</clipPath>
</defs>
</svg>
