<svg width="57" height="72" viewBox="0 0 57 72" fill="none" xmlns="http://www.w3.org/2000/svg">
<path d="M28.1893 72L48.4573 50.6033C59.7227 38.9149 59.8634 20.4185 48.7772 8.55907C43.6398 3.06073 36.4494 -0.0409555 28.9362 0.00040849C21.2104 -0.00307264 13.8305 3.21329 8.56137 8.87995C-2.74616 20.5411 -2.85274 39.477 8.24142 51.0313L28.1893 72Z" fill="#FFDFA5"/>
<path d="M26.2501 39.6818H26.4064V40H22V39.6818H22.1563C22.3017 39.6818 22.4375 39.6181 22.5624 39.4909C22.6874 39.3637 22.7969 39.2155 22.8906 39.0455C22.9844 38.8759 23.0518 38.6905 23.0938 38.4888C23.1352 38.2873 23.1563 38.1019 23.1563 37.9319V20.9728C23.1563 20.8247 23.1352 20.6545 23.0938 20.4637C23.0518 20.2728 22.9844 20.0928 22.8906 19.9228C22.7969 19.7532 22.6875 19.6101 22.5624 19.4932C22.4373 19.3768 22.3017 19.3182 22.1563 19.3182H22V19H27.4375C29.5205 19 31.1299 19.4135 32.2657 20.2409C33.4009 21.0681 33.9688 22.2882 33.9688 23.8999C33.9688 24.7062 33.8384 25.4113 33.5782 26.0157C33.3174 26.6203 32.9689 27.1403 32.5314 27.5748C32.0939 28.0098 31.5782 28.3598 30.9844 28.6248C30.3907 28.8902 29.7603 29.0862 29.0937 29.2134L31.3437 32.7135C31.8852 33.562 32.4375 34.3947 32.9999 35.2112C33.5625 36.0281 34.1142 36.8712 34.6563 37.7406C34.8019 37.953 34.9634 38.1758 35.1406 38.4088C35.3174 38.6424 35.5049 38.8541 35.7032 39.0452C35.9009 39.236 36.1094 39.3902 36.3282 39.5065C36.547 39.6235 36.7706 39.6816 37 39.6816V39.9998H35.6562C34.8227 39.9998 34.1406 39.793 33.6092 39.3795C33.078 38.9658 32.6351 38.4836 32.2811 37.9316C31.3435 36.5317 30.4109 35.1108 29.4842 33.668C28.5569 32.2258 27.6351 30.8044 26.7185 29.4044C26.489 29.3835 26.2444 29.3567 25.9841 29.3249C25.7234 29.293 25.4787 29.2563 25.2498 29.2135V37.9316C25.2498 38.1018 25.2703 38.2872 25.3123 38.4885C25.3537 38.6904 25.4217 38.8757 25.5154 39.0452C25.6092 39.2153 25.7133 39.3634 25.828 39.4906C25.9425 39.6182 26.0831 39.6818 26.2501 39.6818ZM25.25 20.0819V28.1637H25.4063C25.5729 28.1852 25.8384 28.201 26.2032 28.2114C26.5675 28.2223 27.0207 28.2272 27.5626 28.2272C28.0001 28.2272 28.4635 28.1586 28.9532 28.0204C29.4426 27.8826 29.901 27.6495 30.3283 27.3204C30.7551 26.9917 31.1095 26.5622 31.3907 26.0317C31.6719 25.5017 31.8125 24.8336 31.8125 24.0273C31.8125 23.2214 31.6612 22.5636 31.3594 22.0545C31.0572 21.5456 30.6407 21.1428 30.1093 20.8456C29.5781 20.5488 28.9374 20.3473 28.1874 20.241C27.4373 20.1351 26.6141 20.0819 25.7186 20.0819H25.25Z" fill="black"/>
</svg>
