<?xml version="1.0" encoding="utf-8"?>
<!-- Generator: Adobe Illustrator 22.1.0, SVG Export Plug-In . SVG Version: 6.00 Build 0)  -->
<svg version="1.1" id="Слой_1" xmlns="http://www.w3.org/2000/svg" xmlns:xlink="http://www.w3.org/1999/xlink" x="0px" y="0px"
	 viewBox="0 0 11 10" style="enable-background:new 0 0 11 10;" xml:space="preserve">

<path class="st0" d="M0.2,5.6L0.2,5.6l4.3,4.2c0.3,0.3,0.8,0.3,1.2,0C6,9.4,6,8.9,5.7,8.6L2.8,5.8H10c0,0,0-0.4,0-0.8s0-0.5,0-0.8
	H2.8l2.9-2.8C6,1.1,6,0.6,5.7,0.2c-0.3-0.3-0.8-0.3-1.2,0L0.2,4.4l0,0C-0.1,4.7-0.1,5.3,0.2,5.6z"/>
</svg>
