<?xml version="1.0" encoding="utf-8"?>
<!-- Generator: Adobe Illustrator 22.1.0, SVG Export Plug-In . SVG Version: 6.00 Build 0)  -->
<svg version="1.1" id="Слой_1" xmlns="http://www.w3.org/2000/svg" xmlns:xlink="http://www.w3.org/1999/xlink" x="0px" y="0px"
	 viewBox="0 0 8 17" style="enable-background:new 0 0 8 17;" xml:space="preserve">

<path class="st0" d="M6.5,2.8H8V0.1C7.7,0.1,6.9,0,5.9,0C3.8,0,2.3,1.4,2.3,4v2.4H0v3h2.3V17h2.8V9.4h2.2l0.4-3H5.2V4.3
	C5.2,3.4,5.4,2.8,6.5,2.8z"/>
</svg>
