<?xml version="1.0" encoding="utf-8"?>
<!-- Generator: Adobe Illustrator 22.1.0, SVG Export Plug-In . SVG Version: 6.00 Build 0)  -->
<svg version="1.1" id="Слой_1" xmlns="http://www.w3.org/2000/svg" xmlns:xlink="http://www.w3.org/1999/xlink" x="0px" y="0px"
	 viewBox="0 0 17 17" style="enable-background:new 0 0 17 17;" xml:space="preserve">

<path class="st0" d="M12.4,0H4.6C2.1,0,0,2.1,0,4.6v7.8C0,14.9,2.1,17,4.6,17h7.8c2.5,0,4.6-2.1,4.6-4.6V4.6C17,2.1,14.9,0,12.4,0z
	 M8.5,13.1c-2.6,0-4.6-2.1-4.6-4.6c0-2.6,2.1-4.6,4.6-4.6c2.6,0,4.6,2.1,4.6,4.6C13.1,11.1,11.1,13.1,8.5,13.1z"/>
<path class="st0" d="M8.5,4.8c-2,0-3.7,1.6-3.7,3.7c0,2,1.6,3.7,3.7,3.7c2,0,3.7-1.6,3.7-3.7C12.2,6.5,10.5,4.8,8.5,4.8z"/>
</svg>
