<svg width="66" height="66" viewBox="0 0 66 66" fill="none" xmlns="http://www.w3.org/2000/svg">
<g clip-path="url(#clip0)">
<path d="M12.0602 53.1201L14.9159 55.021C16.2451 55.9058 18.0241 54.9529 18.0241 53.3561V41.7396L18.3289 41.4617C20.6614 39.3709 22 36.3935 22 33.2837C22 27.8978 18.1434 23.3457 12.8289 22.459L12.0602 22.3267V22.0223C11.3578 21.9826 10.6422 21.9429 9.93976 21.89V22.3135L9.17108 22.4458C3.85663 23.3457 0 27.8978 0 33.2837C0 36.3935 1.33855 39.3709 3.67108 41.4617L3.9759 41.7396V53.3561C3.9759 54.9529 5.75495 55.9058 7.08415 55.021L9.93976 53.1201C11 53.1201 11 53.1201 12.0602 53.1201Z" fill="#FFDFA5"/>
<path d="M66 59.9699V51.9638C66 50.8593 65.1046 49.9638 64 49.9638H56.0602V8.91927C56.0602 4.00241 52.0578 0 47.141 0H6.09639H5.97711C2.67711 0.026506 0 2.74337 0 6.03012V14.0361C0 15.1407 0.895431 16.0361 2 16.0361H9.93976V22.159L9.17108 22.2916C3.85663 23.1795 0 27.7385 0 33.1325C0 36.247 1.33855 39.2289 3.67108 41.3229L3.9759 41.6012V53.2509C3.9759 54.8483 5.75619 55.8011 7.0853 54.915L9.93976 53.012V57.094C9.93976 62.0108 13.9422 66.0132 18.859 66.0132H59.8639H60.0361C63.3229 65.9735 66 63.2566 66 59.9699ZM3.12048 13.9157C2.5682 13.9157 2.12048 13.4679 2.12048 12.9157V6.03012C2.12048 3.86988 3.86988 2.12048 6.03012 2.12048C8.19036 2.12048 9.93976 3.86988 9.93976 6.03012V13.9157H3.12048ZM2.12048 33.1325C2.12048 28.2422 6.10964 24.253 11 24.253C15.8904 24.253 19.8795 28.2422 19.8795 33.1325C19.8795 38.0229 15.8904 42.012 11 42.012C6.10964 42.012 2.12048 38.0229 2.12048 33.1325ZM6.87452 52.5044C6.5423 52.7268 6.09639 52.4887 6.09639 52.0889V43.0723L7.32892 43.5096C8.50843 43.9337 9.74096 44.1325 11 44.1325C12.259 44.1325 13.4916 43.9205 14.6578 43.5096L15.8904 43.0723V52.0903C15.8904 52.4898 15.445 52.728 15.1128 52.5062L10.9867 49.7518L6.87452 52.5044ZM18.859 63.8795C15.1084 63.8795 12.0602 60.8313 12.0602 57.0807V52.9988L14.9147 54.9017C16.2438 55.7878 18.0241 54.835 18.0241 53.2376V41.6012L18.3289 41.3229C20.6614 39.2289 22 36.247 22 33.1325C22 27.7385 18.1434 23.1795 12.8289 22.2916L12.0602 22.159V6.03012C12.0602 5.12891 11.8614 4.25422 11.4771 3.44578L10.841 2.12048H47.141C50.8916 2.12048 53.9398 5.16867 53.9398 8.91927V59.9699C53.9398 60.8711 54.1386 61.7458 54.5229 62.5542L55.159 63.8795H18.859ZM56.0602 59.9699V52.0843H62.8795C63.4318 52.0843 63.8795 52.532 63.8795 53.0843V59.9699C63.8795 62.1301 62.1301 63.8795 59.9699 63.8795C57.8096 63.8795 56.0602 62.1301 56.0602 59.9699Z" fill="#53545D"/>
<path d="M46.359 11.9277H28.6795C28.0939 11.9277 27.6193 12.4024 27.6193 12.988C27.6193 13.5735 28.094 14.0482 28.6795 14.0482H46.359C46.9446 14.0482 47.4193 13.5735 47.4193 12.988C47.4193 12.4024 46.9446 11.9277 46.359 11.9277Z" fill="#53545D"/>
<path d="M46.359 22.1325H28.6795C28.0939 22.1325 27.6193 22.6072 27.6193 23.1928C27.6193 23.7783 28.094 24.253 28.6795 24.253H46.359C46.9446 24.253 47.4193 23.7783 47.4193 23.1928C47.4193 22.6072 46.9446 22.1325 46.359 22.1325Z" fill="#53545D"/>
<path d="M46.359 32.0723H28.6795C28.0939 32.0723 27.6193 32.547 27.6193 33.1325C27.6193 33.7181 28.094 34.1928 28.6795 34.1928H46.359C46.9446 34.1928 47.4193 33.7181 47.4193 33.1325C47.4193 32.547 46.9446 32.0723 46.359 32.0723Z" fill="#53545D"/>
<path d="M46.359 42.012H28.6795C28.0939 42.012 27.6193 42.4867 27.6193 43.0723C27.6193 43.6578 28.094 44.1325 28.6795 44.1325H46.359C46.9446 44.1325 47.4193 43.6578 47.4193 43.0723C47.4193 42.4867 46.9446 42.012 46.359 42.012Z" fill="#53545D"/>
<path d="M46.359 51.9518H28.6795C28.0939 51.9518 27.6193 52.4265 27.6193 53.0121C27.6193 53.5976 28.0939 54.0723 28.6795 54.0723H46.359C46.9446 54.0723 47.4193 53.5976 47.4193 53.0121C47.4193 52.4265 46.9446 51.9518 46.359 51.9518Z" fill="#53545D"/>
</g>
<defs>
<clipPath id="clip0">
<rect width="66" height="66" fill="white"/>
</clipPath>
</defs>
</svg>
