<svg width="54" height="66" viewBox="0 0 54 66" fill="none" xmlns="http://www.w3.org/2000/svg">
<g clip-path="url(#clip0)">
<path d="M52.927 59.8512C52.4228 59.6578 51.8669 59.9027 51.673 60.4055C50.8068 62.6355 48.6995 64.0664 46.2949 64.0664H15.061V58.6652C15.061 54.4242 11.6093 50.9824 7.356 50.9824H1.93919V15.3269C1.93919 14.7984 1.49964 14.3601 0.969595 14.3601C0.43955 14.3601 0 14.7855 0 15.3269V51.9492C0 59.6965 6.32176 66 14.0915 66H46.2949C49.5011 66 52.3194 64.0793 53.47 61.1016C53.6639 60.6117 53.4182 60.0445 52.927 59.8512ZM13.1219 64.0277C7.18793 63.5637 2.44338 58.8328 1.97797 52.916H7.356C10.5363 52.916 13.1219 55.4941 13.1219 58.6652V64.0277Z" fill="#53545D"/>
<path d="M11.0792 35.359C11.0792 35.8875 11.5188 36.3258 12.0488 36.3258H41.9641C42.4941 36.3258 42.9336 35.8875 42.9336 35.359C42.9336 34.8305 42.4941 34.3922 41.9641 34.3922H12.0488C11.5058 34.3922 11.0792 34.8305 11.0792 35.359Z" fill="#53545D"/>
<path d="M46.2949 0H7.70505C3.45176 0 0 3.4418 0 7.68281V10.8281C0 11.3566 0.43955 11.7949 0.969595 11.7949C1.49964 11.7949 1.93919 11.3566 1.93919 10.8281V7.68281C1.93919 4.51172 4.52478 1.93359 7.70505 1.93359H46.2949C49.4752 1.93359 52.0608 4.51172 52.0608 7.68281V54.7336V56.3062C52.0608 56.8348 52.5004 57.273 53.0304 57.273C53.5605 57.273 54 56.8348 54 56.3062V54.1406V52.207V7.68281C54 3.4418 50.5482 0 46.2949 0Z" fill="#53545D"/>
<path d="M12.0488 47.5664H41.9641C42.4941 47.5664 42.9336 47.1281 42.9336 46.5996C42.9336 46.0711 42.4941 45.6328 41.9641 45.6328H12.0488C11.5188 45.6328 11.0792 46.0711 11.0792 46.5996C11.0792 47.141 11.5058 47.5664 12.0488 47.5664Z" fill="#53545D"/>
<path d="M12.0488 41.9461H41.9641C42.4941 41.9461 42.9336 41.5078 42.9336 40.9793C42.9336 40.4508 42.4941 40.0125 41.9641 40.0125H12.0488C11.5188 40.0125 11.0792 40.4508 11.0792 40.9793C11.0792 41.5207 11.5058 41.9461 12.0488 41.9461Z" fill="#53545D"/>
<path d="M25.5456 53.1996H42.3778C42.6751 53.1996 42.9208 52.7613 42.9208 52.2328C42.9208 51.7043 42.6751 51.266 42.3778 51.266H25.5456C25.2483 51.266 25.0026 51.7043 25.0026 52.2328C24.9897 52.7613 25.2353 53.1996 25.5456 53.1996Z" fill="#53545D"/>
<path d="M36.1666 13.622H31.8788C31.5707 13.622 31.3139 13.3771 31.3139 13.0677V8.80154C31.3139 7.43532 30.197 6.314 28.8234 6.314H24.9977C23.624 6.314 22.5071 7.43532 22.5071 8.80154V13.0677C22.5071 13.3771 22.2504 13.622 21.9423 13.622H17.6544C16.2807 13.622 15.1638 14.7433 15.1638 16.1095V19.9246C15.1638 21.033 15.9084 21.9997 16.9483 22.309C17.2051 22.3993 17.4747 22.4508 17.7699 22.4508H22.0578C22.0963 22.4508 22.1348 22.4508 22.1862 22.4637C22.3787 22.5539 22.5071 22.7473 22.5071 22.9664V27.2326C22.5071 28.5988 23.624 29.7201 24.9977 29.7201H28.8362C30.2099 29.7201 31.3267 28.5988 31.3267 27.2326V22.9664C31.3267 22.7086 31.5193 22.4895 31.7632 22.425C31.8018 22.4121 31.8531 22.4121 31.8916 22.4121H36.1795C36.5133 22.4121 36.8214 22.3477 37.1038 22.2317C38.0153 21.8579 38.6572 20.9686 38.6572 19.9246V16.1095C38.6572 14.7433 37.5403 13.622 36.1666 13.622Z" fill="#FFDFA5"/>
<path d="M25.0673 29.7387H28.9327C30.316 29.7387 31.4407 28.6172 31.4407 27.2508V22.984C31.4407 22.6746 31.6993 22.4297 32.0096 22.4297H36.3275C37.7108 22.4297 38.8355 21.3082 38.8355 19.9418V16.1262C38.8355 14.7598 37.7108 13.6383 36.3275 13.6383H32.0096C31.6993 13.6383 31.4407 13.3934 31.4407 13.084V8.8043C31.4407 7.43789 30.316 6.31641 28.9327 6.31641H25.0673C23.684 6.31641 22.5592 7.43789 22.5592 8.8043V13.0711C22.5592 13.3805 22.3007 13.6254 21.9904 13.6254H17.6725C16.2892 13.6254 15.1645 14.7469 15.1645 16.1133V19.9289C15.1645 21.1793 16.0953 22.2363 17.3493 22.391C17.8793 22.4555 18.3706 22.0816 18.4352 21.5531C18.4999 21.0246 18.125 20.5348 17.5949 20.4703C17.3105 20.4316 17.1037 20.1996 17.1037 19.916V16.1004C17.1037 15.791 17.3622 15.5461 17.6725 15.5461H21.9904C23.3737 15.5461 24.4984 14.4246 24.4984 13.0582V8.8043C24.4984 8.49492 24.757 8.25 25.0673 8.25H28.9327C29.243 8.25 29.5016 8.49492 29.5016 8.8043V13.0711C29.5016 14.4375 30.6263 15.559 32.0096 15.559H36.3275C36.6378 15.559 36.8963 15.8039 36.8963 16.1133V19.9289C36.8963 20.2383 36.6378 20.4832 36.3275 20.4832H32.0096C30.6263 20.4832 29.5016 21.6047 29.5016 22.9711V27.2379C29.5016 27.5473 29.243 27.7922 28.9327 27.7922H25.0673C24.757 27.7922 24.4984 27.5473 24.4984 27.2379V22.9711C24.4984 21.6047 23.3737 20.4832 21.9904 20.4832C21.4604 20.4832 21.0208 20.9215 21.0208 21.45C21.0208 21.9785 21.4604 22.4168 21.9904 22.4168C22.3007 22.4168 22.5592 22.6617 22.5592 22.9711V27.2379C22.5592 28.6301 23.684 29.7387 25.0673 29.7387Z" fill="#53545D"/>
</g>
<defs>
<clipPath id="clip0">
<rect width="54" height="66" fill="white"/>
</clipPath>
</defs>
</svg>
