<?xml version="1.0" encoding="utf-8"?>
<!-- Generator: Adobe Illustrator 22.1.0, SVG Export Plug-In . SVG Version: 6.00 Build 0)  -->
<svg version="1.1" id="Слой_1" xmlns="http://www.w3.org/2000/svg" xmlns:xlink="http://www.w3.org/1999/xlink" x="0px" y="0px"
	 viewBox="0 0 9.5 9.5" style="enable-background:new 0 0 9.5 9.5;" xml:space="preserve">
<path d="M7.9,0.2l-3,3c-0.1,0.1-0.2,0.1-0.4,0l-3-3c-0.2-0.2-0.5-0.2-0.7,0L0.2,0.9c-0.2,0.2-0.2,0.5,0,0.7l3,3
	c0.1,0.1,0.1,0.2,0,0.4l-3,3c-0.2,0.2-0.2,0.5,0,0.7l0.7,0.7c0.2,0.2,0.5,0.2,0.7,0l3-3c0.1-0.1,0.2-0.1,0.4,0l3,3
	c0.2,0.2,0.5,0.2,0.7,0l0.7-0.7c0.2-0.2,0.2-0.5,0-0.7l-3-3c-0.1-0.1-0.1-0.2,0-0.4l3-3c0.2-0.2,0.2-0.5,0-0.7L8.6,0.2
	C8.4-0.1,8.1-0.1,7.9,0.2z"/>
</svg>
