<svg width="1120" height="313" viewBox="0 0 1120 313" fill="none" xmlns="http://www.w3.org/2000/svg">
<path opacity="0.5" d="M0 156.864C0 65.4545 78.1768 -6.40383 169.263 1.28156L1009.52 72.178C1071.98 77.4485 1120 129.688 1120 192.375C1120 258.995 1065.99 313 999.375 313H156.136C69.9043 313 0 243.096 0 156.864Z" fill="#E6E7EC"/>
</svg>
